2499;0xDAAD;Fooom Advanced Dispensing
2500;0xADDA;Plusot
0;0x0000;Ericsson Technology Licensing
1;0x0001;Nokia Mobile Phones
2;0x0002;Intel Corp.
3;0x0003;IBM Corp.
4;0x0004;Toshiba Corp.
5;0x0005;3Com
6;0x0006;Microsoft
7;0x0007;Lucent
8;0x0008;Motorola
9;0x0009;Infineon Technologies AG
10;0x000A;Qualcomm Technologies International Ltd. (QTIL)
11;0x000B;Silicon Wave
12;0x000C;Digianswer A/S
13;0x000D;Texas Instruments Inc.
14;0x000E;Parthus Technologies Inc.
15;0x000F;Broadcom Corporation
16;0x0010;Mitel Semiconductor
17;0x0011;Widcomm Inc.
18;0x0012;Zeevo Inc.
19;0x0013;Atmel Corporation
20;0x0014;Mitsubishi Electric Corporation
21;0x0015;RTX Telecom A/S
22;0x0016;KC Technology Inc.
23;0x0017;Newlogic
24;0x0018;Transilica Inc.
25;0x0019;Rohde & Schwarz GmbH & Co. KG
26;0x001A;TTPCom Limited
27;0x001B;Signia Technologies Inc.
28;0x001C;Conexant Systems Inc.
29;0x001D;Qualcomm
30;0x001E;Inventel
31;0x001F;AVM Berlin
32;0x0020;BandSpeed Inc.
33;0x0021;Mansella Ltd
34;0x0022;NEC Corporation
35;0x0023;WavePlus Technology Co. Ltd.
36;0x0024;Alcatel
37;0x0025;NXP Semiconductors (formerly Philips Semiconductors)
38;0x0026;C Technologies
39;0x0027;Open Interface
40;0x0028;R F Micro Devices
41;0x0029;Hitachi Ltd
42;0x002A;Symbol Technologies Inc.
43;0x002B;Tenovis
44;0x002C;Macronix International Co. Ltd.
45;0x002D;GCT Semiconductor
46;0x002E;Norwood Systems
47;0x002F;MewTel Technology Inc.
48;0x0030;ST Microelectronics
49;0x0031;Synopsys Inc.
50;0x0032;Red-M (Communications) Ltd
51;0x0033;Commil Ltd
52;0x0034;Computer Access Technology Corporation (CATC)
53;0x0035;Eclipse (HQ Espana) S.L.
54;0x0036;Renesas Electronics Corporation
55;0x0037;Mobilian Corporation
56;0x0038;Syntronix Corporation
57;0x0039;Integrated System Solution Corp.
58;0x003A;Matsushita Electric Industrial Co. Ltd.
59;0x003B;Gennum Corporation
60;0x003C;BlackBerry Limited (formerly Research In Motion)
61;0x003D;IPextreme Inc.
62;0x003E;Systems and Chips Inc
63;0x003F;Bluetooth SIG Inc
64;0x0040;Seiko Epson Corporation
65;0x0041;Integrated Silicon Solution Taiwan Inc.
66;0x0042;CONWISE Technology Corporation Ltd
67;0x0043;PARROT AUTOMOTIVE SAS
68;0x0044;Socket Mobile
69;0x0045;Atheros Communications Inc.
70;0x0046;MediaTek Inc.
71;0x0047;Bluegiga
72;0x0048;Marvell Technology Group Ltd.
73;0x0049;3DSP Corporation
74;0x004A;Accel Semiconductor Ltd.
75;0x004B;Continental Automotive Systems
76;0x004C;Apple Inc.
77;0x004D;Staccato Communications Inc.
78;0x004E;Avago Technologies
79;0x004F;APT Ltd.
80;0x0050;SiRF Technology Inc.
81;0x0051;Tzero Technologies Inc.
82;0x0052;J&M Corporation
83;0x0053;Free2move AB
84;0x0054;3DiJoy Corporation
85;0x0055;Plantronics Inc.
86;0x0056;Sony Ericsson Mobile Communications
87;0x0057;Harman International Industries Inc.
88;0x0058;Vizio Inc.
89;0x0059;Nordic Semiconductor ASA
90;0x005A;EM Microelectronic-Marin SA
91;0x005B;Ralink Technology Corporation
92;0x005C;Belkin International Inc.
93;0x005D;Realtek Semiconductor Corporation
94;0x005E;Stonestreet One LLC
95;0x005F;Wicentric Inc.
96;0x0060;RivieraWaves S.A.S
97;0x0061;RDA Microelectronics
98;0x0062;Gibson Guitars
99;0x0063;MiCommand Inc.
100;0x0064;Band XI International LLC
101;0x0065;Hewlett-Packard Company
102;0x0066;9Solutions Oy
103;0x0067;GN Netcom A/S
104;0x0068;General Motors
105;0x0069;A&D Engineering Inc.
106;0x006A;MindTree Ltd.
107;0x006B;Polar Electro OY
108;0x006C;Beautiful Enterprise Co. Ltd.
109;0x006D;BriarTek Inc
110;0x006E;Summit Data Communications Inc.
111;0x006F;Sound ID
112;0x0070;Monster LLC
113;0x0071;connectBlue AB
114;0x0072;ShangHai Super Smart Electronics Co. Ltd.
115;0x0073;Group Sense Ltd.
116;0x0074;Zomm LLC
117;0x0075;Samsung Electronics Co. Ltd.
118;0x0076;Creative Technology Ltd.
119;0x0077;Laird Technologies
120;0x0078;Nike Inc.
121;0x0079;lesswire AG
122;0x007A;MStar Semiconductor Inc.
123;0x007B;Hanlynn Technologies
124;0x007C;A & R Cambridge
125;0x007D;Seers Technology Co. Ltd.
126;0x007E;Sports Tracking Technologies Ltd.
127;0x007F;Autonet Mobile
128;0x0080;DeLorme Publishing Company Inc.
129;0x0081;WuXi Vimicro
130;0x0082;Sennheiser Communications A/S
131;0x0083;TimeKeeping Systems Inc.
132;0x0084;Ludus Helsinki Ltd.
133;0x0085;BlueRadios Inc.
134;0x0086;Equinux AG
135;0x0087;Garmin International Inc.
136;0x0088;Ecotest
137;0x0089;GN ReSound A/S
138;0x008A;Jawbone
139;0x008B;Topcon Positioning Systems LLC
140;0x008C;Gimbal Inc. (formerly Qualcomm Labs Inc. and Qualcomm Retail Solutions Inc.)
141;0x008D;Zscan Software
142;0x008E;Quintic Corp
143;0x008F;Telit Wireless Solutions GmbH (formerly Stollmann E+V GmbH)
144;0x0090;Funai Electric Co. Ltd.
145;0x0091;Advanced PANMOBIL systems GmbH & Co. KG
146;0x0092;ThinkOptics Inc.
147;0x0093;Universal Electronics Inc.
148;0x0094;Airoha Technology Corp.
149;0x0095;NEC Lighting Ltd.
150;0x0096;ODM Technology Inc.
151;0x0097;ConnecteDevice Ltd.
152;0x0098;zero1.tv GmbH
153;0x0099;i.Tech Dynamic Global Distribution Ltd.
154;0x009A;Alpwise
155;0x009B;Jiangsu Toppower Automotive Electronics Co. Ltd.
156;0x009C;Colorfy Inc.
157;0x009D;Geoforce Inc.
158;0x009E;Bose Corporation
159;0x009F;Suunto Oy
160;0x00A0;Kensington Computer Products Group
161;0x00A1;SR-Medizinelektronik
162;0x00A2;Vertu Corporation Limited
163;0x00A3;Meta Watch Ltd.
164;0x00A4;LINAK A/S
165;0x00A5;OTL Dynamics LLC
166;0x00A6;Panda Ocean Inc.
167;0x00A7;Visteon Corporation
168;0x00A8;ARP Devices Limited
169;0x00A9;Magneti Marelli S.p.A
170;0x00AA;CAEN RFID srl
171;0x00AB;Ingenieur-Systemgruppe Zahn GmbH
172;0x00AC;Green Throttle Games
173;0x00AD;Peter Systemtechnik GmbH
174;0x00AE;Omegawave Oy
175;0x00AF;Cinetix
176;0x00B0;Passif Semiconductor Corp
177;0x00B1;Saris Cycling Group Inc
178;0x00B2;Bekey A/S
179;0x00B3;Clarinox Technologies Pty. Ltd.
180;0x00B4;BDE Technology Co. Ltd.
181;0x00B5;Swirl Networks
182;0x00B6;Meso international
183;0x00B7;TreLab Ltd
184;0x00B8;Qualcomm Innovation Center Inc. (QuIC)
185;0x00B9;Johnson Controls Inc.
186;0x00BA;Starkey Laboratories Inc.
187;0x00BB;S-Power Electronics Limited
188;0x00BC;Ace Sensor Inc
189;0x00BD;Aplix Corporation
190;0x00BE;AAMP of America
191;0x00BF;Stalmart Technology Limited
192;0x00C0;AMICCOM Electronics Corporation
193;0x00C1;Shenzhen Excelsecu Data Technology Co.Ltd
194;0x00C2;Geneq Inc.
195;0x00C3;adidas AG
196;0x00C4;LG Electronics
197;0x00C5;Onset Computer Corporation
198;0x00C6;Selfly BV
199;0x00C7;Quuppa Oy.
200;0x00C8;GeLo Inc
201;0x00C9;Evluma
202;0x00CA;MC10
203;0x00CB;Binauric SE
204;0x00CC;Beats Electronics
205;0x00CD;Microchip Technology Inc.
206;0x00CE;Elgato Systems GmbH
207;0x00CF;ARCHOS SA
208;0x00D0;Dexcom Inc.
209;0x00D1;Polar Electro Europe B.V.
210;0x00D2;Dialog Semiconductor B.V.
211;0x00D3;Taixingbang Technology (HK) Co. LTD.
212;0x00D4;Kawantech
213;0x00D5;Austco Communication Systems
214;0x00D6;Timex Group USA Inc.
215;0x00D7;Qualcomm Technologies Inc.
216;0x00D8;Qualcomm Connected Experiences Inc.
217;0x00D9;Voyetra Turtle Beach
218;0x00DA;txtr GmbH
219;0x00DB;Biosentronics
220;0x00DC;Procter & Gamble
221;0x00DD;Hosiden Corporation
222;0x00DE;Muzik LLC
223;0x00DF;Misfit Wearables Corp
224;0x00E0;Google
225;0x00E1;Danlers Ltd
226;0x00E2;Semilink Inc
227;0x00E3;inMusic Brands Inc
228;0x00E4;L.S. Research Inc.
229;0x00E5;Eden Software Consultants Ltd.
230;0x00E6;Freshtemp
231;0x00E7;KS Technologies
232;0x00E8;ACTS Technologies
233;0x00E9;Vtrack Systems
234;0x00EA;Nielsen-Kellerman Company
235;0x00EB;Server Technology Inc.
236;0x00EC;BioResearch Associates
237;0x00ED;Jolly Logic LLC
238;0x00EE;Above Average Outcomes Inc.
239;0x00EF;Bitsplitters GmbH
240;0x00F0;PayPal Inc.
241;0x00F1;Witron Technology Limited
242;0x00F2;Morse Project Inc.
243;0x00F3;Kent Displays Inc.
244;0x00F4;Nautilus Inc.
245;0x00F5;Smartifier Oy
246;0x00F6;Elcometer Limited
247;0x00F7;VSN Technologies Inc.
248;0x00F8;AceUni Corp. Ltd.
249;0x00F9;StickNFind
250;0x00FA;Crystal Code AB
251;0x00FB;KOUKAAM a.s.
252;0x00FC;Delphi Corporation
253;0x00FD;ValenceTech Limited
254;0x00FE;Stanley Black and Decker
255;0x00FF;Typo Products LLC
256;0x0100;TomTom International BV
257;0x0101;Fugoo Inc.
258;0x0102;Keiser Corporation
259;0x0103;Bang & Olufsen A/S
260;0x0104;PLUS Location Systems Pty Ltd
261;0x0105;Ubiquitous Computing Technology Corporation
262;0x0106;Innovative Yachtter Solutions
263;0x0107;William Demant Holding A/S
264;0x0108;Chicony Electronics Co. Ltd.
265;0x0109;Atus BV
266;0x010A;Codegate Ltd
267;0x010B;ERi Inc
268;0x010C;Transducers Direct LLC
269;0x010D;Fujitsu Ten LImited
270;0x010E;Audi AG
271;0x010F;HiSilicon Technologies Col Ltd.
272;0x0110;Nippon Seiki Co. Ltd.
273;0x0111;Steelseries ApS
274;0x0112;Visybl Inc.
275;0x0113;Openbrain Technologies Co. Ltd.
276;0x0114;Xensr
277;0x0115;e.solutions
278;0x0116;10AK Technologies
279;0x0117;Wimoto Technologies Inc
280;0x0118;Radius Networks Inc.
281;0x0119;Wize Technology Co. Ltd.
282;0x011A;Qualcomm Labs Inc.
283;0x011B;Hewlett Packard Enterprise
284;0x011C;Baidu
285;0x011D;Arendi AG
286;0x011E;Skoda Auto a.s.
287;0x011F;Volkswagen AG
288;0x0120;Porsche AG
289;0x0121;Sino Wealth Electronic Ltd.
290;0x0122;AirTurn Inc.
291;0x0123;Kinsa Inc
292;0x0124;HID Global
293;0x0125;SEAT es
294;0x0126;Promethean Ltd.
295;0x0127;Salutica Allied Solutions
296;0x0128;GPSI Group Pty Ltd
297;0x0129;Nimble Devices Oy
298;0x012A;Changzhou Yongse Infotech Co. Ltd.
299;0x012B;SportIQ
300;0x012C;TEMEC Instruments B.V.
301;0x012D;Sony Corporation
302;0x012E;ASSA ABLOY
303;0x012F;Clarion Co. Inc.
304;0x0130;Warehouse Innovations
305;0x0131;Cypress Semiconductor
306;0x0132;MADS Inc
307;0x0133;Blue Maestro Limited
308;0x0134;Resolution Products Ltd.
309;0x0135;Aireware LLC
310;0x0136;Silvair Inc.
311;0x0137;Prestigio Plaza Ltd.
312;0x0138;NTEO Inc.
313;0x0139;Focus Systems Corporation
314;0x013A;Tencent Holdings Ltd.
315;0x013B;Allegion
316;0x013C;Murata Manufacturing Co. Ltd.
317;0x013D;WirelessWERX
318;0x013E;Nod Inc.
319;0x013F;B&B Manufacturing Company
320;0x0140;Alpine Electronics (China) Co. Ltd
321;0x0141;FedEx Services
322;0x0142;Grape Systems Inc.
323;0x0143;Bkon Connect
324;0x0144;Lintech GmbH
325;0x0145;Novatel Wireless
326;0x0146;Ciright
327;0x0147;Mighty Cast Inc.
328;0x0148;Ambimat Electronics
329;0x0149;Perytons Ltd.
330;0x014A;Tivoli Audio LLC
331;0x014B;Master Lock
332;0x014C;Mesh-Net Ltd
333;0x014D;HUIZHOU DESAY SV AUTOMOTIVE CO. LTD.
334;0x014E;Tangerine Inc.
335;0x014F;B&W Group Ltd.
336;0x0150;Pioneer Corporation
337;0x0151;OnBeep
338;0x0152;Vernier Software & Technology
339;0x0153;ROL Ergo
340;0x0154;Pebble Technology
341;0x0155;NETATMO
342;0x0156;Accumulate AB
343;0x0157;Anhui Huami Information Technology Co. Ltd.
344;0x0158;Inmite s.r.o.
345;0x0159;ChefSteps Inc.
346;0x015A;micas AG
347;0x015B;Biomedical Research Ltd.
348;0x015C;Pitius Tec S.L.
349;0x015D;Estimote Inc.
350;0x015E;Unikey Technologies Inc.
351;0x015F;Timer Cap Co.
352;0x0160;AwoX
353;0x0161;yikes
354;0x0162;MADSGlobalNZ Ltd.
355;0x0163;PCH International
356;0x0164;Qingdao Yeelink Information Technology Co. Ltd.
357;0x0165;Milwaukee Tool (Formally Milwaukee Electric Tools)
358;0x0166;MISHIK Pte Ltd
359;0x0167;Ascensia Diabetes Care US Inc.
360;0x0168;Spicebox LLC
361;0x0169;emberlight
362;0x016A;Cooper-Atkins Corporation
363;0x016B;Qblinks
364;0x016C;MYSPHERA
365;0x016D;LifeScan Inc
366;0x016E;Volantic AB
367;0x016F;Podo Labs Inc
368;0x0170;Roche Diabetes Care AG
369;0x0171;Amazon Fulfillment Service
370;0x0172;Connovate Technology Private Limited
371;0x0173;Kocomojo LLC
372;0x0174;Everykey Inc.
373;0x0175;Dynamic Controls
374;0x0176;SentriLock
375;0x0177;I-SYST inc.
376;0x0178;CASIO COMPUTER CO. LTD.
377;0x0179;LAPIS Semiconductor Co. Ltd.
378;0x017A;Telemonitor Inc.
379;0x017B;taskit GmbH
380;0x017C;Daimler AG
381;0x017D;BatAndCat
382;0x017E;BluDotz Ltd
383;0x017F;XTel Wireless ApS
384;0x0180;Gigaset Communications GmbH
385;0x0181;Gecko Health Innovations Inc.
386;0x0182;HOP Ubiquitous
387;0x0183;Walt Disney
388;0x0184;Nectar
389;0x0185;bel'apps LLC
390;0x0186;CORE Lighting Ltd
391;0x0187;Seraphim Sense Ltd
392;0x0188;Unico RBC
393;0x0189;Physical Enterprises Inc.
394;0x018A;Able Trend Technology Limited
395;0x018B;Konica Minolta Inc.
396;0x018C;Wilo SE
397;0x018D;Extron Design Services
398;0x018E;Fitbit Inc.
399;0x018F;Fireflies Systems
400;0x0190;Intelletto Technologies Inc.
401;0x0191;FDK CORPORATION
402;0x0192;Cloudleaf Inc
403;0x0193;Maveric Automation LLC
404;0x0194;Acoustic Stream Corporation
405;0x0195;Zuli
406;0x0196;Paxton Access Ltd
407;0x0197;WiSilica Inc.
408;0x0198;VENGIT Korlatolt Felelossegu Tarsasag
409;0x0199;SALTO SYSTEMS S.L.
410;0x019A;TRON Forum (formerly T-Engine Forum)
411;0x019B;CUBETECH s.r.o.
412;0x019C;Cokiya Incorporated
413;0x019D;CVS Health
414;0x019E;Ceruus
415;0x019F;Strainstall Ltd
416;0x01A0;Channel Enterprises (HK) Ltd.
417;0x01A1;FIAMM
418;0x01A2;GIGALANE.CO.LTD
419;0x01A3;EROAD
420;0x01A4;Mine Safety Appliances
421;0x01A5;Icon Health and Fitness
422;0x01A6;Wille Engineering (formely as Asandoo GmbH)
423;0x01A7;ENERGOUS CORPORATION
424;0x01A8;Taobao
425;0x01A9;Canon Inc.
426;0x01AA;Geophysical Technology Inc.
427;0x01AB;Facebook Inc.
428;0x01AC;Trividia Health Inc.
429;0x01AD;FlightSafety International
430;0x01AE;Earlens Corporation
431;0x01AF;Sunrise Micro Devices Inc.
432;0x01B0;Star Micronics Co. Ltd.
433;0x01B1;Netizens Sp. z o.o.
434;0x01B2;Nymi Inc.
435;0x01B3;Nytec Inc.
436;0x01B4;Trineo Sp. z o.o.
437;0x01B5;Nest Labs Inc.
438;0x01B6;LM Technologies Ltd
439;0x01B7;General Electric Company
440;0x01B8;i+D3 S.L.
441;0x01B9;HANA Micron
442;0x01BA;Stages Cycling LLC
443;0x01BB;Cochlear Bone Anchored Solutions AB
444;0x01BC;SenionLab AB
445;0x01BD;Syszone Co. Ltd
446;0x01BE;Pulsate Mobile Ltd.
447;0x01BF;Hong Kong HunterSun Electronic Limited
448;0x01C0;pironex GmbH
449;0x01C1;BRADATECH Corp.
450;0x01C2;Transenergooil AG
451;0x01C3;Bunch
452;0x01C4;DME Microelectronics
453;0x01C5;Bitcraze AB
454;0x01C6;HASWARE Inc.
455;0x01C7;Abiogenix Inc.
456;0x01C8;Poly-Control ApS
457;0x01C9;Avi-on
458;0x01CA;Laerdal Medical AS
459;0x01CB;Fetch My Pet
460;0x01CC;Sam Labs Ltd.
461;0x01CD;Chengdu Synwing Technology Ltd
462;0x01CE;HOUWA SYSTEM DESIGN k.k.
463;0x01CF;BSH
464;0x01D0;Primus Inter Pares Ltd
465;0x01D1;August Home Inc
466;0x01D2;Gill Electronics
467;0x01D3;Sky Wave Design
468;0x01D4;Newlab S.r.l.
469;0x01D5;ELAD srl
470;0x01D6;G-wearables inc.
471;0x01D7;Squadrone Systems Inc.
472;0x01D8;Code Corporation
473;0x01D9;Savant Systems LLC
474;0x01DA;Logitech International SA
475;0x01DB;Innblue Consulting
476;0x01DC;iParking Ltd.
477;0x01DD;Koninklijke Philips Electronics N.V.
478;0x01DE;Minelab Electronics Pty Limited
479;0x01DF;Bison Group Ltd.
480;0x01E0;Widex A/S
481;0x01E1;Jolla Ltd
482;0x01E2;Lectronix Inc.
483;0x01E3;Caterpillar Inc
484;0x01E4;Freedom Innovations
485;0x01E5;Dynamic Devices Ltd
486;0x01E6;Technology Solutions (UK) Ltd
487;0x01E7;IPS Group Inc.
488;0x01E8;STIR
489;0x01E9;Sano Inc.
490;0x01EA;Advanced Application Design Inc.
491;0x01EB;AutoMap LLC
492;0x01EC;Spreadtrum Communications Shanghai Ltd
493;0x01ED;CuteCircuit LTD
494;0x01EE;Valeo Service
495;0x01EF;Fullpower Technologies Inc.
496;0x01F0;KloudNation
497;0x01F1;Zebra Technologies Corporation
498;0x01F2;Itron Inc.
499;0x01F3;The University of Tokyo
500;0x01F4;UTC Fire and Security
501;0x01F5;Cool Webthings Limited
502;0x01F6;DJO Global
503;0x01F7;Gelliner Limited
504;0x01F8;Anyka (Guangzhou) Microelectronics Technology Co LTD
505;0x01F9;Medtronic Inc.
506;0x01FA;Gozio Inc.
507;0x01FB;Form Lifting LLC
508;0x01FC;Wahoo Fitness LLC
509;0x01FD;Kontakt Micro-Location Sp. z o.o.
510;0x01FE;Radio Systems Corporation
511;0x01FF;Freescale Semiconductor Inc.
512;0x0200;Verifone Systems Pte Ltd. Taiwan Branch
513;0x0201;AR Timing
514;0x0202;Rigado LLC
515;0x0203;Kemppi Oy
516;0x0204;Tapcentive Inc.
517;0x0205;Smartbotics Inc.
518;0x0206;Otter Products LLC
519;0x0207;STEMP Inc.
520;0x0208;LumiGeek LLC
521;0x0209;InvisionHeart Inc.
522;0x020A;Macnica Inc.
523;0x020B;Jaguar Land Rover Limited
524;0x020C;CoroWare Technologies Inc
525;0x020D;Simplo Technology Co. LTD
526;0x020E;Omron Healthcare Co. LTD
527;0x020F;Comodule GMBH
528;0x0210;ikeGPS
529;0x0211;Telink Semiconductor Co. Ltd
530;0x0212;Interplan Co. Ltd
531;0x0213;Wyler AG
532;0x0214;IK Multimedia Production srl
533;0x0215;Lukoton Experience Oy
534;0x0216;MTI Ltd
535;0x0217;Tech4home Lda
536;0x0218;Hiotech AB
537;0x0219;DOTT Limited
538;0x021A;Blue Speck Labs LLC
539;0x021B;Cisco Systems Inc
540;0x021C;Mobicomm Inc
541;0x021D;Edamic
542;0x021E;Goodnet Ltd
543;0x021F;Luster Leaf Products Inc
544;0x0220;Manus Machina BV
545;0x0221;Mobiquity Networks Inc
546;0x0222;Praxis Dynamics
547;0x0223;Philip Morris Products S.A.
548;0x0224;Comarch SA
549;0x0225;Nestl Nespresso S.A.
550;0x0226;Merlinia A/S
551;0x0227;LifeBEAM Technologies
552;0x0228;Twocanoes Labs LLC
553;0x0229;Muoverti Limited
554;0x022A;Stamer Musikanlagen GMBH
555;0x022B;Tesla Motors
556;0x022C;Pharynks Corporation
557;0x022D;Lupine
558;0x022E;Siemens AG
559;0x022F;Huami (Shanghai) Culture Communication CO. LTD
560;0x0230;Foster Electric Company Ltd
561;0x0231;ETA SA
562;0x0232;x-Senso Solutions Kft
563;0x0233;Shenzhen SuLong Communication Ltd
564;0x0234;FengFan (BeiJing) Technology Co Ltd
565;0x0235;Qrio Inc
566;0x0236;Pitpatpet Ltd
567;0x0237;MSHeli s.r.l.
568;0x0238;Trakm8 Ltd
569;0x0239;JIN CO Ltd
570;0x023A;Alatech Tehnology
571;0x023B;Beijing CarePulse Electronic Technology Co Ltd
572;0x023C;Awarepoint
573;0x023D;ViCentra B.V.
574;0x023E;Raven Industries
575;0x023F;WaveWare Technologies Inc.
576;0x0240;Argenox Technologies
577;0x0241;Bragi GmbH
578;0x0242;16Lab Inc
579;0x0243;Masimo Corp
580;0x0244;Iotera Inc
581;0x0245;Endress+Hauser
582;0x0246;ACKme Networks Inc.
583;0x0247;FiftyThree Inc.
584;0x0248;Parker Hannifin Corp
585;0x0249;Transcranial Ltd
586;0x024A;Uwatec AG
587;0x024B;Orlan LLC
588;0x024C;Blue Clover Devices
589;0x024D;M-Way Solutions GmbH
590;0x024E;Microtronics Engineering GmbH
591;0x024F;Schneider Schreibgerte GmbH
592;0x0250;Sapphire Circuits LLC
593;0x0251;Lumo Bodytech Inc.
594;0x0252;UKC Technosolution
595;0x0253;Xicato Inc.
596;0x0254;Playbrush
597;0x0255;Dai Nippon Printing Co. Ltd.
598;0x0256;G24 Power Limited
599;0x0257;AdBabble Local Commerce Inc.
600;0x0258;Devialet SA
601;0x0259;ALTYOR
602;0x025A;University of Applied Sciences Valais/Haute Ecole Valaisanne
603;0x025B;Five Interactive LLC dba Zendo
604;0x025C;NetEaseHangzhouNetwork co.Ltd.
605;0x025D;Lexmark International Inc.
606;0x025E;Fluke Corporation
607;0x025F;Yardarm Technologies
608;0x0260;SensaRx
609;0x0261;SECVRE GmbH
610;0x0262;Glacial Ridge Technologies
611;0x0263;Identiv Inc.
612;0x0264;DDS Inc.
613;0x0265;SMK Corporation
614;0x0266;Schawbel Technologies LLC
615;0x0267;XMI Systems SA
616;0x0268;Cerevo
617;0x0269;Torrox GmbH & Co KG
618;0x026A;Gemalto
619;0x026B;DEKA Research & Development Corp.
620;0x026C;Domster Tadeusz Szydlowski
621;0x026D;Technogym SPA
622;0x026E;FLEURBAEY BVBA
623;0x026F;Aptcode Solutions
624;0x0270;LSI ADL Technology
625;0x0271;Animas Corp
626;0x0272;Alps Electric Co. Ltd.
627;0x0273;OCEASOFT
628;0x0274;Motsai Research
629;0x0275;Geotab
630;0x0276;E.G.O. Elektro-Gertebau GmbH
631;0x0277;bewhere inc
632;0x0278;Johnson Outdoors Inc
633;0x0279;steute Schaltgerate GmbH & Co. KG
634;0x027A;Ekomini inc.
635;0x027B;DEFA AS
636;0x027C;Aseptika Ltd
637;0x027D;HUAWEI Technologies Co. Ltd. ( )
638;0x027E;HabitAware LLC
639;0x027F;ruwido austria gmbh
640;0x0280;ITEC corporation
641;0x0281;StoneL
642;0x0282;Sonova AG
643;0x0283;Maven Machines Inc.
644;0x0284;Synapse Electronics
645;0x0285;Standard Innovation Inc.
646;0x0286;RF Code Inc.
647;0x0287;Wally Ventures S.L.
648;0x0288;Willowbank Electronics Ltd
649;0x0289;SK Telecom
650;0x028A;Jetro AS
651;0x028B;Code Gears LTD
652;0x028C;NANOLINK APS
653;0x028D;IF LLC
654;0x028E;RF Digital Corp
655;0x028F;Church & Dwight Co. Inc
656;0x0290;Multibit Oy
657;0x0291;CliniCloud Inc
658;0x0292;SwiftSensors
659;0x0293;Blue Bite
660;0x0294;ELIAS GmbH
661;0x0295;Sivantos GmbH
662;0x0296;Petzl
663;0x0297;storm power ltd
664;0x0298;EISST Ltd
665;0x0299;Inexess Technology Simma KG
666;0x029A;Currant Inc.
667;0x029B;C2 Development Inc.
668;0x029C;Blue Sky Scientific LLC
669;0x029D;ALOTTAZS LABS LLC
670;0x029E;Kupson spol. s r.o.
671;0x029F;Areus Engineering GmbH
672;0x02A0;Impossible Camera GmbH
673;0x02A1;InventureTrack Systems
674;0x02A2;LockedUp
675;0x02A3;Itude
676;0x02A4;Pacific Lock Company
677;0x02A5;Tendyron Corporation ( )
678;0x02A6;Robert Bosch GmbH
679;0x02A7;Illuxtron international B.V.
680;0x02A8;miSport Ltd.
681;0x02A9;Chargelib
682;0x02AA;Doppler Lab
683;0x02AB;BBPOS Limited
684;0x02AC;RTB Elektronik GmbH & Co. KG
685;0x02AD;Rx Networks Inc.
686;0x02AE;WeatherFlow Inc.
687;0x02AF;Technicolor USA Inc.
688;0x02B0;Bestechnic(Shanghai)Ltd
689;0x02B1;Raden Inc
690;0x02B2;JouZen Oy
691;0x02B3;CLABER S.P.A.
692;0x02B4;Hyginex Inc.
693;0x02B5;HANSHIN ELECTRIC RAILWAY CO.LTD.
694;0x02B6;Schneider Electric
695;0x02B7;Oort Technologies LLC
696;0x02B8;Chrono Therapeutics
697;0x02B9;Rinnai Corporation
698;0x02BA;Swissprime Technologies AG
699;0x02BB;Koha.Co.Ltd
700;0x02BC;Genevac Ltd
701;0x02BD;Chemtronics
702;0x02BE;Seguro Technology Sp. z o.o.
703;0x02BF;Redbird Flight Simulations
704;0x02C0;Dash Robotics
705;0x02C1;LINE Corporation
706;0x02C2;Guillemot Corporation
707;0x02C3;Techtronic Power Tools Technology Limited
708;0x02C4;Wilson Sporting Goods
709;0x02C5;Lenovo (Singapore) Pte Ltd. ( )
710;0x02C6;Ayatan Sensors
711;0x02C7;Electronics Tomorrow Limited
712;0x02C8;VASCO Data Security International Inc.
713;0x02C9;PayRange Inc.
714;0x02CA;ABOV Semiconductor
715;0x02CB;AINA-Wireless Inc.
716;0x02CC;Eijkelkamp Soil & Water
717;0x02CD;BMA ergonomics b.v.
718;0x02CE;Teva Branded Pharmaceutical Products R&D Inc.
719;0x02CF;Anima
720;0x02D0;3M
721;0x02D1;Empatica Srl
722;0x02D2;Afero Inc.
723;0x02D3;Powercast Corporation
724;0x02D4;Secuyou ApS
725;0x02D5;OMRON Corporation
726;0x02D6;Send Solutions
727;0x02D7;NIPPON SYSTEMWARE CO.LTD.
728;0x02D8;Neosfar
729;0x02D9;Fliegl Agrartechnik GmbH
730;0x02DA;Gilvader
731;0x02DB;Digi International Inc (R)
732;0x02DC;DeWalch Technologies Inc.
733;0x02DD;Flint Rehabilitation Devices LLC
734;0x02DE;Samsung SDS Co. Ltd.
735;0x02DF;Blur Product Development
736;0x02E0;University of Michigan
737;0x02E1;Victron Energy BV
738;0x02E2;NTT docomo
739;0x02E3;Carmanah Technologies Corp.
740;0x02E4;Bytestorm Ltd.
741;0x02E5;Espressif Incorporated ( () )
742;0x02E6;Unwire
743;0x02E7;Connected Yard Inc.
744;0x02E8;American Music Environments
745;0x02E9;Sensogram Technologies Inc.
746;0x02EA;Fujitsu Limited
747;0x02EB;Ardic Technology
748;0x02EC;Delta Systems Inc
749;0x02ED;HTC Corporation
750;0x02EE;Citizen Holdings Co. Ltd.
751;0x02EF;SMART-INNOVATION.inc
752;0x02F0;Blackrat Software
753;0x02F1;The Idea Cave LLC
754;0x02F2;GoPro Inc.
755;0x02F3;AuthAir Inc
756;0x02F4;Vensi Inc.
757;0x02F5;Indagem Tech LLC
758;0x02F6;Intemo Technologies
759;0x02F7;DreamVisions co. Ltd.
760;0x02F8;Runteq Oy Ltd
761;0x02F9;IMAGINATION TECHNOLOGIES LTD
762;0x02FA;CoSTAR TEchnologies
763;0x02FB;Clarius Mobile Health Corp.
764;0x02FC;Shanghai Frequen Microelectronics Co. Ltd.
765;0x02FD;Uwanna Inc.
766;0x02FE;Lierda Science & Technology Group Co. Ltd.
767;0x02FF;Silicon Laboratories
768;0x0300;World Moto Inc.
769;0x0301;Giatec Scientific Inc.
770;0x0302;Loop Devices Inc
771;0x0303;IACA electronique
772;0x0304;Proxy Technologies Inc.
773;0x0305;Swipp ApS
774;0x0306;Life Laboratory Inc.
775;0x0307;FUJI INDUSTRIAL CO.LTD.
776;0x0308;Surefire LLC
777;0x0309;Dolby Labs
778;0x030A;Ellisys
779;0x030B;Magnitude Lighting Converters
780;0x030C;Hilti AG
781;0x030D;Devdata S.r.l.
782;0x030E;Deviceworx
783;0x030F;Shortcut Labs
784;0x0310;SGL Italia S.r.l.
785;0x0311;PEEQ DATA
786;0x0312;Ducere Technologies Pvt Ltd
787;0x0313;DiveNav Inc.
788;0x0314;RIIG AI Sp. z o.o.
789;0x0315;Thermo Fisher Scientific
790;0x0316;AG Measurematics Pvt. Ltd.
791;0x0317;CHUO Electronics CO. LTD.
792;0x0318;Aspenta International
793;0x0319;Eugster Frismag AG
794;0x031A;Amber wireless GmbH
795;0x031B;HQ Inc
796;0x031C;Lab Sensor Solutions
797;0x031D;Enterlab ApS
798;0x031E;Eyefi Inc.
799;0x031F;MetaSystem S.p.A.
800;0x0320;SONO ELECTRONICS. CO. LTD
801;0x0321;Jewelbots
802;0x0322;Compumedics Limited
803;0x0323;Rotor Bike Components
804;0x0324;Astro Inc.
805;0x0325;Amotus Solutions
806;0x0326;Healthwear Technologies (Changzhou)Ltd
807;0x0327;Essex Electronics
808;0x0328;Grundfos A/S
809;0x0329;Eargo Inc.
810;0x032A;Electronic Design Lab
811;0x032B;ESYLUX
812;0x032C;NIPPON SMT.CO.Ltd
813;0x032D;BM innovations GmbH
814;0x032E;indoormap
815;0x032F;OttoQ Inc
816;0x0330;North Pole Engineering
817;0x0331;3flares Technologies Inc.
818;0x0332;Electrocompaniet A.S.
819;0x0333;Mul-T-Lock
820;0x0334;Corentium AS
821;0x0335;Enlighted Inc
822;0x0336;GISTIC
823;0x0337;AJP2 Holdings LLC
824;0x0338;COBI GmbH
825;0x0339;Blue Sky Scientific LLC
826;0x033A;Appception Inc.
827;0x033B;Courtney Thorne Limited
828;0x033C;Virtuosys
829;0x033D;TPV Technology Limited
830;0x033E;Monitra SA
831;0x033F;Automation Components Inc.
832;0x0340;Letsense s.r.l.
833;0x0341;Etesian Technologies LLC
834;0x0342;GERTEC BRASIL LTDA.
835;0x0343;Drekker Development Pty. Ltd.
836;0x0344;Whirl Inc
837;0x0345;Locus Positioning
838;0x0346;Acuity Brands Lighting Inc
839;0x0347;Prevent Biometrics
840;0x0348;Arioneo
841;0x0349;VersaMe
842;0x034A;Vaddio
843;0x034B;Libratone A/S
844;0x034C;HM Electronics Inc.
845;0x034D;TASER International Inc.
846;0x034E;SafeTrust Inc.
847;0x034F;Heartland Payment Systems
848;0x0350;Bitstrata Systems Inc.
849;0x0351;Pieps GmbH
850;0x0352;iRiding(Xiamen)Technology Co.Ltd.
851;0x0353;Alpha Audiotronics Inc.
852;0x0354;TOPPAN FORMS CO.LTD.
853;0x0355;Sigma Designs Inc.
854;0x0356;Spectrum Brands Inc.
855;0x0357;Polymap Wireless
856;0x0358;MagniWare Ltd.
857;0x0359;Novotec Medical GmbH
858;0x035A;Medicom Innovation Partner a/s
859;0x035B;Matrix Inc.
860;0x035C;Eaton Corporation
861;0x035D;KYS
862;0x035E;Naya Health Inc.
863;0x035F;Acromag
864;0x0360;Insulet Corporation
865;0x0361;Wellinks Inc.
866;0x0362;ON Semiconductor
867;0x0363;FREELAP SA
868;0x0364;Favero Electronics Srl
869;0x0365;BioMech Sensor LLC
870;0x0366;BOLTT Sports technologies Private limited
871;0x0367;Saphe International
872;0x0368;Metormote AB
873;0x0369;littleBits
874;0x036A;SetPoint Medical
875;0x036B;BRControls Products BV
876;0x036C;Zipcar
877;0x036D;AirBolt Pty Ltd
878;0x036E;KeepTruckin Inc
879;0x036F;Motiv Inc.
880;0x0370;Wazombi Labs O
881;0x0371;ORBCOMM
882;0x0372;Nixie Labs Inc.
883;0x0373;AppNearMe Ltd
884;0x0374;Holman Industries
885;0x0375;Expain AS
886;0x0376;Electronic Temperature Instruments Ltd
887;0x0377;Plejd AB
888;0x0378;Propeller Health
889;0x0379;Shenzhen iMCO Electronic Technology Co.Ltd
890;0x037A;Algoria
891;0x037B;Apption Labs Inc.
892;0x037C;Cronologics Corporation
893;0x037D;MICRODIA Ltd.
894;0x037E;lulabytes S.L.
895;0x037F;Nestec S.A.
896;0x0380;LLC "MEGA-F service"
897;0x0381;Sharp Corporation
898;0x0382;Precision Outcomes Ltd
899;0x0383;Kronos Incorporated
900;0x0384;OCOSMOS Co. Ltd.
901;0x0385;Embedded Electronic Solutions Ltd. dba e2Solutions
902;0x0386;Aterica Inc.
903;0x0387;BluStor PMC Inc.
904;0x0388;Kapsch TrafficCom AB
905;0x0389;ActiveBlu Corporation
906;0x038A;Kohler Mira Limited
907;0x038B;Noke
908;0x038C;Appion Inc.
909;0x038D;Resmed Ltd
910;0x038E;Crownstone B.V.
911;0x038F;Xiaomi Inc.
912;0x0390;INFOTECH s.r.o.
913;0x0391;Thingsquare AB
914;0x0392;T&D
915;0x0393;LAVAZZA S.p.A.
916;0x0394;Netclearance Systems Inc.
917;0x0395;SDATAWAY
918;0x0396;BLOKS GmbH
919;0x0397;LEGO System A/S
920;0x0398;Thetatronics Ltd
921;0x0399;Nikon Corporation
922;0x039A;NeST
923;0x039B;South Silicon Valley Microelectronics
924;0x039C;ALE International
925;0x039D;CareView Communications Inc.
926;0x039E;SchoolBoard Limited
927;0x039F;Molex Corporation
928;0x03A0;IVT Wireless Limited
929;0x03A1;Alpine Labs LLC
930;0x03A2;Candura Instruments
931;0x03A3;SmartMovt Technology Co. Ltd
932;0x03A4;Token Zero Ltd
933;0x03A5;ACE CAD Enterprise Co. Ltd. (ACECAD)
934;0x03A6;Medela Inc
935;0x03A7;AeroScout
936;0x03A8;Esrille Inc.
937;0x03A9;THINKERLY SRL
938;0x03AA;Exon Sp. z o.o.
939;0x03AB;Meizu Technology Co. Ltd.
940;0x03AC;Smablo LTD
941;0x03AD;XiQ
942;0x03AE;Allswell Inc.
943;0x03AF;Comm-N-Sense Corp DBA Verigo
944;0x03B0;VIBRADORM GmbH
945;0x03B1;Otodata Wireless Network Inc.
946;0x03B2;Propagation Systems Limited
947;0x03B3;Midwest Instruments & Controls
948;0x03B4;Alpha Nodus inc.
949;0x03B5;petPOMM Inc
950;0x03B6;Mattel
951;0x03B7;Airbly Inc.
952;0x03B8;A-Safe Limited
953;0x03B9;FREDERIQUE CONSTANT SA
954;0x03BA;Maxscend Microelectronics Company Limited
955;0x03BB;Abbott Diabetes Care
956;0x03BC;ASB Bank Ltd
957;0x03BD;amadas
958;0x03BE;Applied Science Inc.
959;0x03BF;iLumi Solutions Inc.
960;0x03C0;Arch Systems Inc.
961;0x03C1;Ember Technologies Inc.
962;0x03C2;Snapchat Inc
963;0x03C3;Casambi Technologies Oy
964;0x03C4;Pico Technology Inc.
965;0x03C5;St. Jude Medical Inc.
966;0x03C6;Intricon
967;0x03C7;Structural Health Systems Inc.
968;0x03C8;Avvel International
969;0x03C9;Gallagher Group
970;0x03CA;In2things Automation Pvt. Ltd.
971;0x03CB;SYSDEV Srl
972;0x03CC;Vonkil Technologies Ltd
973;0x03CD;Wynd Technologies Inc.
974;0x03CE;CONTRINEX S.A.
975;0x03CF;MIRA Inc.
976;0x03D0;Watteam Ltd
977;0x03D1;Density Inc.
978;0x03D2;IOT Pot India Private Limited
979;0x03D3;Sigma Connectivity AB
980;0x03D4;PEG PEREGO SPA
981;0x03D5;Wyzelink Systems Inc.
982;0x03D6;Yota Devices LTD
983;0x03D7;FINSECUR
984;0x03D8;Zen-Me Labs Ltd
985;0x03D9;3IWare Co. Ltd.
986;0x03DA;EnOcean GmbH
987;0x03DB;Instabeat Inc
988;0x03DC;Nima Labs
989;0x03DD;Andreas Stihl AG & Co. KG
990;0x03DE;Nathan Rhoades LLC
991;0x03DF;Grob Technologies LLC
992;0x03E0;Actions (Zhuhai) Technology Co. Limited
993;0x03E1;SPD Development Company Ltd
994;0x03E2;Sensoan Oy
995;0x03E3;Qualcomm Life Inc
996;0x03E4;Chip-ing AG
997;0x03E5;ffly4u
998;0x03E6;IoT Instruments Oy
999;0x03E7;TRUE Fitness Technology
1000;0x03E8;Reiner Kartengeraete GmbH & Co. KG.
1001;0x03E9;SHENZHEN LEMONJOY TECHNOLOGY CO. LTD.
1002;0x03EA;Hello Inc.
1003;0x03EB;Evollve Inc.
1004;0x03EC;Jigowatts Inc.
1005;0x03ED;BASIC MICRO.COMINC.
1006;0x03EE;CUBE TECHNOLOGIES
1007;0x03EF;foolography GmbH
1008;0x03F0;CLINK
1009;0x03F1;Hestan Smart Cooking Inc.
1010;0x03F2;WindowMaster A/S
1011;0x03F3;Flowscape AB
1012;0x03F4;PAL Technologies Ltd
1013;0x03F5;WHERE Inc.
1014;0x03F6;Iton Technology Corp.
1015;0x03F7;Owl Labs Inc.
1016;0x03F8;Rockford Corp.
1017;0x03F9;Becon Technologies Co.Ltd.
1018;0x03FA;Vyassoft Technologies Inc
1019;0x03FB;Nox Medical
1020;0x03FC;Kimberly-Clark
1021;0x03FD;Trimble Navigation Ltd.
1022;0x03FE;Littelfuse
1023;0x03FF;Withings
1024;0x0400;i-developer IT Beratung UG
1025;0x0401;Manufacturer 0x401
1026;0x0402;Sears Holdings Corporation
1027;0x0403;Gantner Electronic GmbH
1028;0x0404;Authomate Inc
1029;0x0405;Vertex International Inc.
1030;0x0406;Airtago
1031;0x0407;Swiss Audio SA
1032;0x0408;ToGetHome Inc.
1033;0x0409;AXIS
1034;0x040A;Openmatics
1035;0x040B;Jana Care Inc.
1036;0x040C;Senix Corporation
1037;0x040D;NorthStar Battery Company LLC
1038;0x040E;SKF (U.K.) Limited
1039;0x040F;CO-AX Technology Inc.
1040;0x0410;Fender Musical Instruments
1041;0x0411;Luidia Inc
1042;0x0412;SEFAM
1043;0x0413;Wireless Cables Inc
1044;0x0414;Lightning Protection International Pty Ltd
1045;0x0415;Uber Technologies Inc
1046;0x0416;SODA GmbH
1047;0x0417;Fatigue Science
1048;0x0418;Alpine Electronics Inc.
1049;0x0419;Novalogy LTD
1050;0x041A;Friday Labs Limited
1051;0x041B;OrthoAccel Technologies
1052;0x041C;WaterGuru Inc.
1053;0x041D;Benning Elektrotechnik und Elektronik GmbH & Co. KG
1054;0x041E;Dell Computer Corporation
1055;0x041F;Kopin Corporation
1056;0x0420;TecBakery GmbH
1057;0x0421;Backbone Labs Inc.
1058;0x0422;DELSEY SA
1059;0x0423;Chargifi Limited
1060;0x0424;Trainesense Ltd.
1061;0x0425;Unify Software and Solutions GmbH & Co. KG
1062;0x0426;Husqvarna AB
1063;0x0427;Focus fleet and fuel management inc
1064;0x0428;SmallLoop LLC
1065;0x0429;Prolon Inc.
1066;0x042A;BD Medical
1067;0x042B;iMicroMed Incorporated
1068;0x042C;Ticto N.V.
1069;0x042D;Meshtech AS
1070;0x042E;MemCachier Inc.
1071;0x042F;Danfoss A/S
1072;0x0430;SnapStyk Inc.
1073;0x0431;Amway Corporation
1074;0x0432;Silk Labs Inc.
1075;0x0433;Pillsy Inc.
1076;0x0434;Hatch Baby Inc.
1077;0x0435;Blocks Wearables Ltd.
1078;0x0436;Drayson Technologies (Europe) Limited
1079;0x0437;eBest IOT Inc.
1080;0x0438;Helvar Ltd
1081;0x0439;Radiance Technologies
1082;0x043A;Nuheara Limited
1083;0x043B;Appside co. ltd.
1084;0x043C;DeLaval
1085;0x043D;Coiler Corporation
1086;0x043E;Thermomedics Inc.
1087;0x043F;Tentacle Sync GmbH
1088;0x0440;Valencell Inc.
1089;0x0441;iProtoXi Oy
1090;0x0442;SECOM CO. LTD.
1091;0x0443;Tucker International LLC
1092;0x0444;Metanate Limited
1093;0x0445;Kobian Canada Inc.
1094;0x0446;NETGEAR Inc.
1095;0x0447;Fabtronics Australia Pty Ltd
1096;0x0448;Grand Centrix GmbH
1097;0x0449;1UP USA.com llc
1098;0x044A;SHIMANO INC.
1099;0x044B;Nain Inc.
1100;0x044C;LifeStyle Lock LLC
1101;0x044D;VEGA Grieshaber KG
1102;0x044E;Xtrava Inc.
1103;0x044F;TTS Tooltechnic Systems AG & Co. KG
1104;0x0450;Teenage Engineering AB
1105;0x0451;Tunstall Nordic AB
1106;0x0452;Svep Design Center AB
1107;0x0453;GreenPeak Technologies BV
1108;0x0454;Sphinx Electronics GmbH & Co KG
1109;0x0455;Atomation
1110;0x0456;Nemik Consulting Inc
1111;0x0457;RF INNOVATION
1112;0x0458;Mini Solution Co. Ltd.
1113;0x0459;Lumenetix Inc
1114;0x045A;2048450 Ontario Inc
1115;0x045B;SPACEEK LTD
1116;0x045C;Delta T Corporation
1117;0x045D;Boston Scientific Corporation
1118;0x045E;Nuviz Inc.
1119;0x045F;Real Time Automation Inc.
1120;0x0460;Kolibree
1121;0x0461;vhf elektronik GmbH
1122;0x0462;Bonsai Systems GmbH
1123;0x0463;Fathom Systems Inc.
1124;0x0464;Bellman & Symfon
1125;0x0465;International Forte Group LLC
1126;0x0466;CycleLabs Solutions inc.
1127;0x0467;Codenex Oy
1128;0x0468;Kynesim Ltd
1129;0x0469;Palago AB
1130;0x046A;INSIGMA INC.
1131;0x046B;PMD Solutions
1132;0x046C;Qingdao Realtime Technology Co. Ltd.
1133;0x046D;BEGA Gantenbrink-Leuchten KG
1134;0x046E;Pambor Ltd.
1135;0x046F;Develco Products A/S
1136;0x0470;iDesign s.r.l.
1137;0x0471;TiVo Corp
1138;0x0472;Control-J Pty Ltd
1139;0x0473;Steelcase Inc.
1140;0x0474;iApartment co. ltd.
1141;0x0475;Icom inc.
1142;0x0476;Oxstren Wearable Technologies Private Limited
1143;0x0477;Blue Spark Technologies
1144;0x0478;FarSite Communications Limited
1145;0x0479;mywerk system GmbH
1146;0x047A;Sinosun Technology Co. Ltd.
1147;0x047B;MIYOSHI ELECTRONICS CORPORATION
1148;0x047C;POWERMAT LTD
1149;0x047D;Occly LLC
1150;0x047E;OurHub Dev IvS
1151;0x047F;Pro-Mark Inc.
1152;0x0480;Dynometrics Inc.
1153;0x0481;Quintrax Limited
1154;0x0482;POS Tuning Udo Vosshenrich GmbH & Co. KG
1155;0x0483;Multi Care Systems B.V.
1156;0x0484;Revol Technologies Inc
1157;0x0485;SKIDATA AG
1158;0x0486;DEV TECNOLOGIA INDUSTRIA COMERCIO E MANUTENCAO DE EQUIPAMENTOS LTDA. - ME
1159;0x0487;Centrica Connected Home
1160;0x0488;Automotive Data Solutions Inc
1161;0x0489;Igarashi Engineering
1162;0x048A;Taelek Oy
1163;0x048B;CP Electronics Limited
1164;0x048C;Vectronix AG
1165;0x048D;S-Labs Sp. z o.o.
1166;0x048E;Companion Medical Inc.
1167;0x048F;BlueKitchen GmbH
1168;0x0490;Matting AB
1169;0x0491;SOREX - Wireless Solutions GmbH
1170;0x0492;ADC Technology Inc.
1171;0x0493;Lynxemi Pte Ltd
1172;0x0494;SENNHEISER electronic GmbH & Co. KG
1173;0x0495;LMT Mercer Group Inc
1174;0x0496;Polymorphic Labs LLC
1175;0x0497;Cochlear Limited
1176;0x0498;METER Group Inc. USA
1177;0x0499;Ruuvi Innovations Ltd.
1178;0x049A;Situne AS
1179;0x049B;nVisti LLC
1180;0x049C;DyOcean
1181;0x049D;Uhlmann & Zacher GmbH
1182;0x049E;AND!XOR LLC
1183;0x049F;tictote AB
1184;0x04A0;Vypin LLC
1185;0x04A1;PNI Sensor Corporation
1186;0x04A2;ovrEngineered LLC
1187;0x04A3;GT-tronics HK Ltd
1188;0x04A4;Herbert Waldmann GmbH & Co. KG
1189;0x04A5;Guangzhou FiiO Electronics Technology Co.Ltd
1190;0x04A6;Vinetech Co. Ltd
1191;0x04A7;Dallas Logic Corporation
1192;0x04A8;BioTex Inc.
1193;0x04A9;DISCOVERY SOUND TECHNOLOGY LLC
1194;0x04AA;LINKIO SAS
1195;0x04AB;Harbortronics Inc.
1196;0x04AC;Undagrid B.V.
1197;0x04AD;Shure Inc
1198;0x04AE;ERM Electronic Systems LTD
1199;0x04AF;BIOROWER Handelsagentur GmbH
1200;0x04B0;Weba Sport und Med. Artikel GmbH
1201;0x04B1;Kartographers Technologies Pvt. Ltd.
1202;0x04B2;The Shadow on the Moon
1203;0x04B3;mobike (Hong Kong) Limited
1204;0x04B4;Inuheat Group AB
1205;0x04B5;Swiftronix AB
1206;0x04B6;Diagnoptics Technologies
1207;0x04B7;Analog Devices Inc.
1208;0x04B8;Soraa Inc.
1209;0x04B9;CSR Building Products Limited
1210;0x04BA;Crestron Electronics Inc.
1211;0x04BB;Neatebox Ltd
1212;0x04BC;Draegerwerk AG & Co. KGaA
1213;0x04BD;AlbynMedical
1214;0x04BE;Averos FZCO
1215;0x04BF;VIT Initiative LLC
1216;0x04C0;Statsports International
1217;0x04C1;Sospitas s.r.o.
1218;0x04C2;Dmet Products Corp.
1219;0x04C3;Mantracourt Electronics Limited
1220;0x04C4;TeAM Hutchins AB
1221;0x04C5;Seibert Williams Glass LLC
1222;0x04C6;Insta GmbH
1223;0x04C7;Svantek Sp. z o.o.
1224;0x04C8;Shanghai Flyco Electrical Appliance Co. Ltd.
1225;0x04C9;Thornwave Labs Inc
1226;0x04CA;Steiner-Optik GmbH
1227;0x04CB;Novo Nordisk A/S
1228;0x04CC;Enflux Inc.
1229;0x04CD;Safetech Products LLC
1230;0x04CE;GOOOLED S.R.L.
1231;0x04CF;DOM Sicherheitstechnik GmbH & Co. KG
1232;0x04D0;Olympus Corporation
1233;0x04D1;KTS GmbH
1234;0x04D2;Anloq Technologies Inc.
1235;0x04D3;Queercon Inc
1236;0x04D4;5th Element Ltd
1237;0x04D5;Gooee Limited
1238;0x04D6;LUGLOC LLC
1239;0x04D7;Blincam Inc.
1240;0x04D8;FUJIFILM Corporation
1241;0x04D9;RandMcNally
1242;0x04DA;Franceschi Marina snc
1243;0x04DB;Engineered Audio LLC.
1244;0x04DC;IOTTIVE (OPC) PRIVATE LIMITED
1245;0x04DD;4MOD Technology
1246;0x04DE;Lutron Electronics Co. Inc.
1247;0x04DF;Emerson
1248;0x04E0;Guardtec Inc.
1249;0x04E1;REACTEC LIMITED
1250;0x04E2;EllieGrid
1251;0x04E3;Under Armour
1252;0x04E4;Woodenshark
1253;0x04E5;Avack Oy
1254;0x04E6;Smart Solution Technology Inc.
1255;0x04E7;REHABTRONICS INC.
1256;0x04E8;STABILO International
1257;0x04E9;Busch Jaeger Elektro GmbH
1258;0x04EA;Pacific Bioscience Laboratories Inc
1259;0x04EB;Bird Home Automation GmbH
1260;0x04EC;Motorola Solutions
1261;0x04ED;R9 Technology Inc.
1262;0x04EE;Auxivia
1263;0x04EF;DaisyWorks Inc
1264;0x04F0;Kosi Limited
1265;0x04F1;Theben AG
1266;0x04F2;InDreamer Techsol Private Limited
1267;0x04F3;Cerevast Medical
1268;0x04F4;ZanCompute Inc.
1269;0x04F5;Pirelli Tyre S.P.A.
1270;0x04F6;McLear Limited
1271;0x04F7;Shenzhen Huiding Technology Co.Ltd.
1272;0x04F8;Convergence Systems Limited
1273;0x04F9;Interactio
1274;0x04FA;Androtec GmbH
1275;0x04FB;Benchmark Drives GmbH & Co. KG
1276;0x04FC;SwingLync L. L. C.
1277;0x04FD;Tapkey GmbH
1278;0x04FE;Woosim Systems Inc.
1279;0x04FF;Microsemi Corporation
1280;0x0500;Wiliot LTD.
1281;0x0501;Polaris IND
1282;0x0502;Specifi-Kali LLC
1283;0x0503;Locoroll Inc
1284;0x0504;PHYPLUS Inc
1285;0x0505;Inplay Technologies LLC
1286;0x0506;Hager
1287;0x0507;Yellowcog
1288;0x0508;Axes System sp. z o. o.
1289;0x0509;myLIFTER Inc.
1290;0x050A;Shake-on B.V.
1291;0x050B;Vibrissa Inc.
1292;0x050C;OSRAM GmbH
1293;0x050D;TRSystems GmbH
1294;0x050E;Yichip Microelectronics (Hangzhou) Co.Ltd.
1295;0x050F;Foundation Engineering LLC
1296;0x0510;UNI-ELECTRONICS INC.
1297;0x0511;Brookfield Equinox LLC
1298;0x0512;Soprod SA
1299;0x0513;9974091 Canada Inc.
1300;0x0514;FIBRO GmbH
1301;0x0515;RB Controls Co. Ltd.
1302;0x0516;Footmarks
1303;0x0517;Amtronic Sverige AB (formerly Amcore AB)
1304;0x0518;MAMORIO.inc
1305;0x0519;Tyto Life LLC
1306;0x051A;Leica Camera AG
1307;0x051B;Angee Technologies Ltd.
1308;0x051C;EDPS
1309;0x051D;OFF Line Co. Ltd.
1310;0x051E;Detect Blue Limited
1311;0x051F;Setec Pty Ltd
1312;0x0520;Target Corporation
1313;0x0521;IAI Corporation
1314;0x0522;NS Tech Inc.
1315;0x0523;MTG Co. Ltd.
1316;0x0524;Hangzhou iMagic Technology Co. Ltd
1317;0x0525;HONGKONG NANO IC TECHNOLOGIES CO. LIMITED
1318;0x0526;Honeywell International Inc.
1319;0x0527;Albrecht JUNG
1320;0x0528;Lunera Lighting Inc.
1321;0x0529;Lumen UAB
1322;0x052A;Keynes Controls Ltd
1323;0x052B;Novartis AG
1324;0x052C;Geosatis SA
1325;0x052D;EXFO Inc.
1326;0x052E;LEDVANCE GmbH
1327;0x052F;Center ID Corp.
1328;0x0530;Adolene Inc.
1329;0x0531;D&M Holdings Inc.
1330;0x0532;CRESCO Wireless Inc.
1331;0x0533;Nura Operations Pty Ltd
1332;0x0534;Frontiergadget Inc.
1333;0x0535;Smart Component Technologies Limited
1334;0x0536;ZTR Control Systems LLC
1335;0x0537;MetaLogics Corporation
1336;0x0538;Medela AG
1337;0x0539;OPPLE Lighting Co. Ltd
1338;0x053A;Savitech Corp.
1339;0x053B;prodigy
1340;0x053C;Screenovate Technologies Ltd
1341;0x053D;TESA SA
1342;0x053E;CLIM8 LIMITED
1343;0x053F;Silergy Corp
1344;0x0540;SilverPlus Inc
1345;0x0541;Sharknet srl
1346;0x0542;Mist Systems Inc.
1347;0x0543;MIWA LOCK CO.Ltd
1348;0x0544;OrthoSensor Inc.
1349;0x0545;Candy Hoover Group s.r.l
1350;0x0546;Apexar Technologies S.A.
1351;0x0547;LOGICDATA d.o.o.
1352;0x0548;Knick Elektronische Messgeraete GmbH & Co. KG
1353;0x0549;Smart Technologies and Investment Limited
1354;0x054A;Linough Inc.
1355;0x054B;Advanced Electronic Designs Inc.
1356;0x054C;Carefree Scott Fetzer Co Inc
1357;0x054D;Sensome
1358;0x054E;FORTRONIK storitve d.o.o.
1359;0x054F;Sinnoz
1360;0x0550;Versa Networks Inc.
1361;0x0551;Sylero
1362;0x0552;Avempace SARL
1363;0x0553;Nintendo Co. Ltd.
1364;0x0554;National Instruments
1365;0x0555;KROHNE Messtechnik GmbH
1366;0x0556;Otodynamics Ltd
1367;0x0557;Arwin Technology Limited
1368;0x0558;benegear inc.
1369;0x0559;Newcon Optik
1370;0x055A;CANDY HOUSE Inc.
1371;0x055B;FRANKLIN TECHNOLOGY INC
1372;0x055C;Lely
1373;0x055D;Valve Corporation
1374;0x055E;Hekatron Vertriebs GmbH
1375;0x055F;PROTECH S.A.S. DI GIRARDI ANDREA & C.
1376;0x0560;Sarita CareTech APS (formerly Sarita CareTech IVS)
1377;0x0561;Finder S.p.A.
1378;0x0562;Thalmic Labs Inc.
1379;0x0563;Steinel Vertrieb GmbH
1380;0x0564;Beghelli Spa
1381;0x0565;Beijing Smartspace Technologies Inc.
1382;0x0566;CORE TRANSPORT TECHNOLOGIES NZ LIMITED
1383;0x0567;Xiamen Everesports Goods Co. Ltd
1384;0x0568;Bodyport Inc.
1385;0x0569;Audionics System INC.
1386;0x056A;Flipnavi Co.Ltd.
1387;0x056B;Rion Co. Ltd.
1388;0x056C;Long Range Systems LLC
1389;0x056D;Redmond Industrial Group LLC
1390;0x056E;VIZPIN INC.
1391;0x056F;BikeFinder AS
1392;0x0570;Consumer Sleep Solutions LLC
1393;0x0571;PSIKICK INC.
1394;0x0572;AntTail.com
1395;0x0573;Lighting Science Group Corp.
1396;0x0574;AFFORDABLE ELECTRONICS INC
1397;0x0575;Integral Memroy Plc
1398;0x0576;Globalstar Inc.
1399;0x0577;True Wearables Inc.
1400;0x0578;Wellington Drive Technologies Ltd
1401;0x0579;Ensemble Tech Private Limited
1402;0x057A;OMNI Remotes
1403;0x057B;Duracell U.S. Operations Inc.
1404;0x057C;Toor Technologies LLC
1405;0x057D;Instinct Performance
1406;0x057E;Beco Inc
1407;0x057F;Scuf Gaming International LLC
1408;0x0580;ARANZ Medical Limited
1409;0x0581;LYS TECHNOLOGIES LTD
1410;0x0582;Breakwall Analytics LLC
1411;0x0583;Code Blue Communications
1412;0x0584;Gira Giersiepen GmbH & Co. KG
1413;0x0585;Hearing Lab Technology
1414;0x0586;LEGRAND
1415;0x0587;Derichs GmbH
1416;0x0588;ALT-TEKNIK LLC
1417;0x0589;Star Technologies
1418;0x058A;START TODAY CO.LTD.
1419;0x058B;Maxim Integrated Products
1420;0x058C;MERCK Kommanditgesellschaft auf Aktien
1421;0x058D;Jungheinrich Aktiengesellschaft
1422;0x058E;Oculus VR LLC
1423;0x058F;HENDON SEMICONDUCTORS PTY LTD
1424;0x0590;Pur3 Ltd
1425;0x0591;Viasat Group S.p.A.
1426;0x0592;IZITHERM
1427;0x0593;Spaulding Clinical Research
1428;0x0594;Kohler Company
1429;0x0595;Inor Process AB
1430;0x0596;My Smart Blinds
1431;0x0597;RadioPulse Inc
1432;0x0598;rapitag GmbH
1433;0x0599;Lazlo326 LLC.
1434;0x059A;Teledyne Lecroy Inc.
1435;0x059B;Dataflow Systems Limited
1436;0x059C;Macrogiga Electronics
1437;0x059D;Tandem Diabetes Care
1438;0x059E;Polycom Inc.
1439;0x059F;Fisher & Paykel Healthcare
1440;0x05A0;RCP Software Oy
1441;0x05A1;Shanghai Xiaoyi Technology Co.Ltd.
1442;0x05A2;ADHERIUM(NZ) LIMITED
1443;0x05A3;Axiomware Systems Incorporated
1444;0x05A4;O. E. M. Controls Inc.
1445;0x05A5;Kiiroo BV
1446;0x05A6;Telecon Mobile Limited
1447;0x05A7;Sonos Inc
1448;0x05A8;Tom Allebrandi Consulting
1449;0x05A9;Monidor
1450;0x05AA;Tramex Limited
1451;0x05AB;Nofence AS
1452;0x05AC;GoerTek Dynaudio Co. Ltd.
1453;0x05AD;INIA
1454;0x05AE;CARMATE MFG.CO.LTD
1455;0x05AF;ONvocal
1456;0x05B0;NewTec GmbH
1457;0x05B1;Medallion Instrumentation Systems
1458;0x05B2;CAREL INDUSTRIES S.P.A.
1459;0x05B3;Parabit Systems Inc.
1460;0x05B4;White Horse Scientific ltd
1461;0x05B5;verisilicon
1462;0x05B6;Elecs Industry Co.Ltd.
1463;0x05B7;Beijing Pinecone Electronics Co.Ltd.
1464;0x05B8;Ambystoma Labs Inc.
1465;0x05B9;Suzhou Pairlink Network Technology
1466;0x05BA;igloohome
1467;0x05BB;Oxford Metrics plc
1468;0x05BC;Leviton Mfg. Co. Inc.
1469;0x05BD;ULC Robotics Inc.
1470;0x05BE;RFID Global by Softwork SrL
1471;0x05BF;Real-World-Systems Corporation
1472;0x05C0;Nalu Medical Inc.
1473;0x05C1;P.I.Engineering
1474;0x05C2;Grote Industries
1475;0x05C3;Runtime Inc.
1476;0x05C4;Codecoup sp. z o.o. sp. k.
1477;0x05C5;SELVE GmbH & Co. KG
1478;0x05C6;Smart Animal Training Systems LLC
1479;0x05C7;Lippert Components INC
1480;0x05C8;SOMFY SAS
1481;0x05C9;TBS Electronics B.V.
1482;0x05CA;MHL Custom Inc
1483;0x05CB;LucentWear LLC
1484;0x05CC;WATTS ELECTRONICS
1485;0x05CD;RJ Brands LLC
1486;0x05CE;V-ZUG Ltd
1487;0x05CF;Biowatch SA
1488;0x05D0;Anova Applied Electronics
1489;0x05D1;Lindab AB
1490;0x05D2;frogblue TECHNOLOGY GmbH
1491;0x05D3;Acurable Limited
1492;0x05D4;LAMPLIGHT Co. Ltd.
1493;0x05D5;TEGAM Inc.
1494;0x05D6;Zhuhai Jieli technology Co.Ltd
1495;0x05D7;modum.io AG
1496;0x05D8;Farm Jenny LLC
1497;0x05D9;Toyo Electronics Corporation
1498;0x05DA;Applied Neural Research Corp
1499;0x05DB;Avid Identification Systems Inc.
1500;0x05DC;Petronics Inc.
1501;0x05DD;essentim GmbH
1502;0x05DE;QT Medical INC.
1503;0x05DF;VIRTUALCLINIC.DIRECT LIMITED
1504;0x05E0;Viper Design LLC
1505;0x05E1;Human Incorporated
1506;0x05E2;stAPPtronics GmbH
1507;0x05E3;Elemental Machines Inc.
1508;0x05E4;Taiyo Yuden Co. Ltd
1509;0x05E5;INEO ENERGY& SYSTEMS
1510;0x05E6;Motion Instruments Inc.
1511;0x05E7;PressurePro
1512;0x05E8;COWBOY
1513;0x05E9;iconmobile GmbH
1514;0x05EA;ACS-Control-System GmbH
1515;0x05EB;Bayerische Motoren Werke AG
1516;0x05EC;Gycom Svenska AB
1517;0x05ED;Fuji Xerox Co. Ltd
1518;0x05EE;Glide Inc.
1519;0x05EF;SIKOM AS
1520;0x05F0;beken
1521;0x05F1;The Linux Foundation
1522;0x05F2;Try and E CO.LTD.
1523;0x05F3;SeeScan
1524;0x05F4;Clearity LLC
1525;0x05F5;GS TAG
1526;0x05F6;DPTechnics
1527;0x05F7;TRACMO INC.
1528;0x05F8;Anki Inc.
1529;0x05F9;Hagleitner Hygiene International GmbH
1530;0x05FA;Konami Sports Life Co. Ltd.
1531;0x05FB;Arblet Inc.
1532;0x05FC;Masbando GmbH
1533;0x05FD;Innoseis
1534;0x05FE;Niko
1535;0x05FF;Wellnomics Ltd
1536;0x0600;iRobot Corporation
1537;0x0601;Schrader Electronics
1538;0x0602;Geberit International AG
1539;0x0603;Fourth Evolution Inc
1540;0x0604;Cell2Jack LLC
1541;0x0605;FMW electronic Futterer u. Maier-Wolf OHG
1542;0x0606;John Deere
1543;0x0607;Rookery Technology Ltd
1544;0x0608;KeySafe-Cloud
1545;0x0609;BUCHI Labortechnik AG
1546;0x060A;IQAir AG
1547;0x060B;Triax Technologies Inc
1548;0x060C;Vuzix Corporation
1549;0x060D;TDK Corporation
1550;0x060E;Blueair AB
1551;0x060F;Signify Netherlands
1552;0x0610;ADH GUARDIAN USA LLC
1553;0x0611;Beurer GmbH
1554;0x0612;Playfinity AS
1555;0x0613;Hans Dinslage GmbH
1556;0x0614;OnAsset Intelligence Inc.
1557;0x0615;INTER ACTION Corporation
1558;0x0616;OS42 UG (haftungsbeschraenkt)
1559;0x0617;WIZCONNECTED COMPANY LIMITED
1560;0x0618;Audio-Technica Corporation
1561;0x0619;Six Guys Labs s.r.o.
1562;0x061A;R.W. Beckett Corporation
1563;0x061B;silex technology inc.
1564;0x061C;Univations Limited
1565;0x061D;SENS Innovation ApS
1566;0x061E;Diamond Kinetics Inc.
1567;0x061F;Phrame Inc.
1568;0x0620;Forciot Oy
1569;0x0621;Noordung d.o.o.
1570;0x0622;Beam Labs LLC
1571;0x0623;Philadelphia Scientific (U.K.) Limited
1572;0x0624;Biovotion AG
1573;0x0625;Square Panda Inc.
1574;0x0626;Amplifico
1575;0x0627;WEG S.A.
1576;0x0628;Ensto Oy
1577;0x0629;PHONEPE PVT LTD
1578;0x062A;Lunatico Astronomia SL
1579;0x062B;MinebeaMitsumi Inc.
1580;0x062C;ASPion GmbH
1581;0x062D;Vossloh-Schwabe Deutschland GmbH
1582;0x062E;Procept
1583;0x062F;ONKYO Corporation
1584;0x0630;Asthrea D.O.O.
1585;0x0631;Fortiori Design LLC
1586;0x0632;Hugo Muller GmbH & Co KG
1587;0x0633;Wangi Lai PLT
1588;0x0634;Fanstel Corp
1589;0x0635;Crookwood
1590;0x0636;ELECTRONICA INTEGRAL DE SONIDO S.A.
1591;0x0637;GiP Innovation Tools GmbH
1592;0x0638;LX SOLUTIONS PTY LIMITED
1593;0x0639;Shenzhen Minew Technologies Co. Ltd.
1594;0x063A;Prolojik Limited
1595;0x063B;Kromek Group Plc
1596;0x063C;Contec Medical Systems Co. Ltd.
1597;0x063D;Xradio Technology Co.Ltd.
1598;0x063E;The Indoor Lab LLC
1599;0x063F;LDL TECHNOLOGY
1600;0x0640;Parkifi
1601;0x0641;Revenue Collection Systems FRANCE SAS
1602;0x0642;Bluetrum Technology Co.Ltd
1603;0x0643;makita corporation
1604;0x0644;Apogee Instruments
1605;0x0645;BM3
1606;0x0646;SGV Group Holding GmbH & Co. KG
1607;0x0647;MED-EL
1608;0x0648;Ultune Technologies
1609;0x0649;Ryeex Technology Co.Ltd.
1610;0x064A;Open Research Institute Inc.
1611;0x064B;Scale-Tec Ltd
1612;0x064C;Zumtobel Group AG
1613;0x064D;iLOQ Oy
1614;0x064E;KRUXWorks Technologies Private Limited
1615;0x064F;Digital Matter Pty Ltd
1616;0x0650;Coravin Inc.
1617;0x0651;Stasis Labs Inc.
1618;0x0652;ITZ Innovations- und Technologiezentrum GmbH
1619;0x0653;Meggitt SA
1620;0x0654;Ledlenser GmbH & Co. KG
1621;0x0655;Renishaw PLC
1622;0x0656;ZhuHai AdvanPro Technology Company Limited
1623;0x0657;Meshtronix Limited
1624;0x0658;Payex Norge AS
1625;0x0659;UnSeen Technologies Oy
1626;0x065A;Zound Industries International AB
1627;0x065B;Sesam Solutions BV
1628;0x065C;PixArt Imaging Inc.
1629;0x065D;Panduit Corp.
1630;0x065E;Alo AB
1631;0x065F;Ricoh Company Ltd
1632;0x0660;RTC Industries Inc.
1633;0x0661;Mode Lighting Limited
1634;0x0662;Particle Industries Inc.
1635;0x0663;Advanced Telemetry Systems Inc.
1636;0x0664;RHA TECHNOLOGIES LTD
1637;0x0665;Pure International Limited
1638;0x0666;WTO Werkzeug-Einrichtungen GmbH
1639;0x0667;Spark Technology Labs Inc.
1640;0x0668;Bleb Technology srl
1641;0x0669;Livanova USA Inc.
1642;0x066A;Brady Worldwide Inc.
1643;0x066B;DewertOkin GmbH
1644;0x066C;Ztove ApS
1645;0x066D;Venso EcoSolutions AB
1646;0x066E;Eurotronik Kranj d.o.o.
1647;0x066F;Hug Technology Ltd
1648;0x0670;Gema Switzerland GmbH
1649;0x0671;Buzz Products Ltd.
1650;0x0672;Kopi
1651;0x0673;Innova Ideas Limited
1652;0x0674;BeSpoon
1653;0x0675;Deco Enterprises Inc.
1654;0x0676;Expai Solutions Private Limited
1655;0x0677;Innovation First Inc.
1656;0x0678;SABIK Offshore GmbH
1657;0x0679;4iiii Innovations Inc.
1658;0x067A;The Energy Conservatory Inc.
1659;0x067B;I.FARM INC.
1660;0x067C;Tile Inc.
1661;0x067D;Form Athletica Inc.
1662;0x067E;MbientLab Inc
1663;0x067F;NETGRID S.N.C. DI BISSOLI MATTEO CAMPOREALE SIMONE TOGNETTI FEDERICO
1664;0x0680;Mannkind Corporation
1665;0x0681;Trade FIDES a.s.
1666;0x0682;Photron Limited
1667;0x0683;Eltako GmbH
1668;0x0684;Dermalapps LLC
1669;0x0685;Greenwald Industries
1670;0x0686;inQs Co. Ltd.
1671;0x0687;Cherry GmbH
1672;0x0688;Amsted Digital Solutions Inc.
1673;0x0689;Tacx b.v.
1674;0x068A;Raytac Corporation
1675;0x068B;Jiangsu Teranovo Tech Co. Ltd.
1676;0x068C;Changzhou Sound Dragon Electronics and Acoustics Co. Ltd
1677;0x068D;JetBeep Inc.
1678;0x068E;Razer Inc.
1679;0x068F;JRM Group Limited
1680;0x0690;Eccrine Systems Inc.
1681;0x0691;Curie Point AB
1682;0x0692;Georg Fischer AG
1683;0x0693;Hach - Danaher
1684;0x0694;T&A Laboratories LLC
1685;0x0695;Koki Holdings Co. Ltd.
1686;0x0696;Gunakar Private Limited
1687;0x0697;Stemco Products Inc
1688;0x0698;Wood IT Security LLC
1689;0x0699;RandomLab SAS
1690;0x069A;Adero Inc. (formerly as TrackR Inc.)
1691;0x069B;Dragonchip Limited
1692;0x069C;Noomi AB
1693;0x069D;Vakaros LLC
1694;0x069E;Delta Electronics Inc.
1695;0x069F;FlowMotion Technologies AS
1696;0x06A0;OBIQ Location Technology Inc.
1697;0x06A1;Cardo Systems Ltd
1698;0x06A2;Globalworx GmbH
1699;0x06A3;Nymbus LLC
1700;0x06A4;Sanyo Techno Solutions Tottori Co. Ltd.
1701;0x06A5;TEKZITEL PTY LTD
1702;0x06A6;Roambee Corporation
1703;0x06A7;Chipsea Technologies (ShenZhen) Corp.
1704;0x06A8;GD Midea Air-Conditioning Equipment Co. Ltd.
1705;0x06A9;Soundmax Electronics Limited
1706;0x06AA;Produal Oy
1707;0x06AB;HMS Industrial Networks AB
1708;0x06AC;Ingchips Technology Co. Ltd.
1709;0x06AD;InnovaSea Systems Inc.
1710;0x06AE;SenseQ Inc.
1711;0x06AF;Shoof Technologies
1712;0x06B0;BRK Brands Inc.
1713;0x06B1;SimpliSafe Inc.
1714;0x06B2;Tussock Innovation 2013 Limited
1715;0x06B3;The Hablab ApS
1716;0x06B4;Sencilion Oy
1717;0x06B5;Wabilogic Ltd.
1718;0x06B6;Sociometric Solutions Inc.
1719;0x06B7;iCOGNIZE GmbH
1720;0x06B8;ShadeCraft Inc
1721;0x06B9;Beflex Inc.
1722;0x06BA;Beaconzone Ltd
1723;0x06BB;Leaftronix Analogic Solutions Private Limited
1724;0x06BC;TWS Srl
1725;0x06BD;ABB Oy
1726;0x06BE;HitSeed Oy
1727;0x06BF;Delcom Products Inc.
1728;0x06C0;CAME S.p.A.
1729;0x06C1;Alarm.com Holdings Inc
1730;0x06C2;Measurlogic Inc.
1731;0x06C3;King I Electronics.Co.Ltd
1732;0x06C4;Dream Labs GmbH
1733;0x06C5;Urban Compass Inc
1734;0x06C6;Simm Tronic Limited
1735;0x06C7;Somatix Inc
1736;0x06C8;Storz & Bickel GmbH & Co. KG
1737;0x06C9;MYLAPS B.V.
1738;0x06CA;Shenzhen Zhongguang Infotech Technology Development Co. Ltd
1739;0x06CB;Dyeware LLC
1740;0x06CC;Dongguan SmartAction Technology Co.Ltd.
1741;0x06CD;DIG Corporation
1742;0x06CE;FIOR & GENTZ
1743;0x06CF;Belparts N.V.
1744;0x06D0;Etekcity Corporation
1745;0x06D1;Meyer Sound Laboratories Incorporated
1746;0x06D2;CeoTronics AG
1747;0x06D3;TriTeq Lock and Security LLC
1748;0x06D4;DYNAKODE TECHNOLOGY PRIVATE LIMITED
1749;0x06D5;Sensirion AG
1750;0x06D6;JCT Healthcare Pty Ltd
1751;0x06D7;FUBA Automotive Electronics GmbH
1752;0x06D8;AW Company
1753;0x06D9;Shanghai Mountain View Silicon Co.Ltd.
1754;0x06DA;Zliide Technologies ApS
1755;0x06DB;Automatic Labs Inc.
1756;0x06DC;Industrial Network Controls LLC
1757;0x06DD;Intellithings Ltd.
1758;0x06DE;Navcast Inc.
1759;0x06DF;Hubbell Lighting Inc.
1760;0x06E0;Avaya
1761;0x06E1;Milestone AV Technologies LLC
1762;0x06E2;Alango Technologies Ltd
1763;0x06E3;Spinlock Ltd
1764;0x06E4;Aluna
1765;0x06E5;OPTEX CO.LTD.
1766;0x06E6;NIHON DENGYO KOUSAKU
1767;0x06E7;VELUX A/S
1768;0x06E8;Almendo Technologies GmbH
1769;0x06E9;Zmartfun Electronics Inc.
1770;0x06EA;SafeLine Sweden AB
1771;0x06EB;Houston Radar LLC
1772;0x06EC;Sigur
1773;0x06ED;J Neades Ltd
1774;0x06EE;Avantis Systems Limited
1775;0x06EF;ALCARE Co. Ltd.
1776;0x06F0;Chargy Technologies SL
1777;0x06F1;Shibutani Co. Ltd.
1778;0x06F2;Trapper Data AB
1779;0x06F3;Alfred International Inc.
1780;0x06F4;Near Field Solutions Ltd
1781;0x06F5;Vigil Technologies Inc.
1782;0x06F6;Vitulo Plus BV
1783;0x06F7;WILKA Schliesstechnik GmbH
1784;0x06F8;BodyPlus Technology Co.Ltd
1785;0x06F9;happybrush GmbH
1786;0x06FA;Enequi AB
1787;0x06FB;Sartorius AG
1788;0x06FC;Tom Communication Industrial Co.Ltd.
1789;0x06FD;ESS Embedded System Solutions Inc.
1790;0x06FE;Mahr GmbH
1791;0x06FF;Redpine Signals Inc
1792;0x0700;TraqFreq LLC
1793;0x0701;PAFERS TECH
1794;0x0702;Akciju sabiedriba SAF TEHNIKA
1795;0x0703;Beijing Jingdong Century Trading Co. Ltd.
1796;0x0704;JBX Designs Inc.
1797;0x0705;AB Electrolux
1798;0x0706;Wernher von Braun Center for ASdvanced Research
1799;0x0707;Essity Hygiene and Health Aktiebolag
1800;0x0708;Be Interactive Co. Ltd
1801;0x0709;Carewear Corp.
1802;0x070A;Huf Hlsbeck & Frst GmbH & Co. KG
1803;0x070B;Element Products Inc.
1804;0x070C;Beijing Winner Microelectronics Co.Ltd
1805;0x070D;SmartSnugg Pty Ltd
1806;0x070E;FiveCo Sarl
1807;0x070F;California Things Inc.
1808;0x0710;Audiodo AB
1809;0x0711;ABAX AS
1810;0x0712;Bull Group Company Limited
1811;0x0713;Respiri Limited
1812;0x0714;MindPeace Safety LLC
1813;0x0715;Vgyan Solutions
1814;0x0716;Altonics
1815;0x0717;iQsquare BV
1816;0x0718;IDIBAIX enginneering
1817;0x0719;ECSG
1818;0x071A;REVSMART WEARABLE HK CO LTD
1819;0x071B;Precor
1820;0x071C;F5 Sports Inc
65535;0xFFFF;Kien.io
    